%YAML 1.1
%TAG !u! tag:unity3d.com,2011:
--- !u!1045 &1
EditorBuildSettings:
  m_ObjectHideFlags: 0
  serializedVersion: 2
  m_Scenes:
  - enabled: 1
    path: Assets/Scenes/Play.unity
    guid: f58f089d445a84041a81e2229b049151
  - enabled: 1
    path: Assets/Scenes/Game.unity
    guid: 038890c3f84ee9543bba82ee51adfd2f
