%YAML 1.1
%TAG !u! tag:unity3d.com,2011:
--- !u!114 &11400000
MonoBehaviour:
  m_ObjectHideFlags: 0
  m_PrefabParentObject: {fileID: 0}
  m_PrefabInternal: {fileID: 0}
  m_GameObject: {fileID: 0}
  m_Enabled: 1
  m_EditorHideFlags: 0
  m_Script: {fileID: 11500000, guid: 73ca297f46581cb4cb8bd62f41766813, type: 3}
  m_Name: Level 4
  m_EditorClassIdentifier: 
  _csv: {fileID: 4900000, guid: f08b5fb51fd2b7d4baa1134d272409e0, type: 3}
